('C:/msys64/home/Enablr02/build/main/PYZ-00.pyz',
 [('os', 'C:/msys64/mingw64/lib/python3.8/os.py', 'PYMODULE'),
  ('subprocess', 'C:/msys64/mingw64/lib/python3.8/subprocess.py', 'PYMODULE'),
  ('selectors', 'C:/msys64/mingw64/lib/python3.8/selectors.py', 'PYMODULE'),
  ('contextlib', 'C:/msys64/mingw64/lib/python3.8/contextlib.py', 'PYMODULE'),
  ('threading', 'C:/msys64/mingw64/lib/python3.8/threading.py', 'PYMODULE'),
  ('_threading_local',
   'C:/msys64/mingw64/lib/python3.8/_threading_local.py',
   'PYMODULE'),
  ('signal', 'C:/msys64/mingw64/lib/python3.8/signal.py', 'PYMODULE'),
  ('_strptime', 'C:/msys64/mingw64/lib/python3.8/_strptime.py', 'PYMODULE'),
  ('calendar', 'C:/msys64/mingw64/lib/python3.8/calendar.py', 'PYMODULE'),
  ('argparse', 'C:/msys64/mingw64/lib/python3.8/argparse.py', 'PYMODULE'),
  ('textwrap', 'C:/msys64/mingw64/lib/python3.8/textwrap.py', 'PYMODULE'),
  ('copy', 'C:/msys64/mingw64/lib/python3.8/copy.py', 'PYMODULE'),
  ('gettext', 'C:/msys64/mingw64/lib/python3.8/gettext.py', 'PYMODULE'),
  ('struct', 'C:/msys64/mingw64/lib/python3.8/struct.py', 'PYMODULE'),
  ('shutil', 'C:/msys64/mingw64/lib/python3.8/shutil.py', 'PYMODULE'),
  ('zipfile', 'C:/msys64/mingw64/lib/python3.8/zipfile.py', 'PYMODULE'),
  ('py_compile', 'C:/msys64/mingw64/lib/python3.8/py_compile.py', 'PYMODULE'),
  ('importlib.machinery',
   'C:/msys64/mingw64/lib/python3.8/importlib/machinery.py',
   'PYMODULE'),
  ('importlib',
   'C:/msys64/mingw64/lib/python3.8/importlib/__init__.py',
   'PYMODULE'),
  ('importlib._bootstrap',
   'C:/msys64/mingw64/lib/python3.8/importlib/_bootstrap.py',
   'PYMODULE'),
  ('importlib._bootstrap_external',
   'C:/msys64/mingw64/lib/python3.8/importlib/_bootstrap_external.py',
   'PYMODULE'),
  ('importlib.metadata',
   'C:/msys64/mingw64/lib/python3.8/importlib/metadata.py',
   'PYMODULE'),
  ('importlib.abc',
   'C:/msys64/mingw64/lib/python3.8/importlib/abc.py',
   'PYMODULE'),
  ('configparser',
   'C:/msys64/mingw64/lib/python3.8/configparser.py',
   'PYMODULE'),
  ('pathlib', 'C:/msys64/mingw64/lib/python3.8/pathlib.py', 'PYMODULE'),
  ('urllib.parse',
   'C:/msys64/mingw64/lib/python3.8/urllib/parse.py',
   'PYMODULE'),
  ('urllib', 'C:/msys64/mingw64/lib/python3.8/urllib/__init__.py', 'PYMODULE'),
  ('email', 'C:/msys64/mingw64/lib/python3.8/email/__init__.py', 'PYMODULE'),
  ('email.parser',
   'C:/msys64/mingw64/lib/python3.8/email/parser.py',
   'PYMODULE'),
  ('email._policybase',
   'C:/msys64/mingw64/lib/python3.8/email/_policybase.py',
   'PYMODULE'),
  ('email.utils', 'C:/msys64/mingw64/lib/python3.8/email/utils.py', 'PYMODULE'),
  ('email._parseaddr',
   'C:/msys64/mingw64/lib/python3.8/email/_parseaddr.py',
   'PYMODULE'),
  ('socket', 'C:/msys64/mingw64/lib/python3.8/socket.py', 'PYMODULE'),
  ('random', 'C:/msys64/mingw64/lib/python3.8/random.py', 'PYMODULE'),
  ('hashlib', 'C:/msys64/mingw64/lib/python3.8/hashlib.py', 'PYMODULE'),
  ('logging',
   'C:/msys64/mingw64/lib/python3.8/logging/__init__.py',
   'PYMODULE'),
  ('pickle', 'C:/msys64/mingw64/lib/python3.8/pickle.py', 'PYMODULE'),
  ('doctest', 'C:/msys64/mingw64/lib/python3.8/doctest.py', 'PYMODULE'),
  ('unittest',
   'C:/msys64/mingw64/lib/python3.8/unittest/__init__.py',
   'PYMODULE'),
  ('unittest.signals',
   'C:/msys64/mingw64/lib/python3.8/unittest/signals.py',
   'PYMODULE'),
  ('unittest.main',
   'C:/msys64/mingw64/lib/python3.8/unittest/main.py',
   'PYMODULE'),
  ('unittest.runner',
   'C:/msys64/mingw64/lib/python3.8/unittest/runner.py',
   'PYMODULE'),
  ('unittest.loader',
   'C:/msys64/mingw64/lib/python3.8/unittest/loader.py',
   'PYMODULE'),
  ('unittest.suite',
   'C:/msys64/mingw64/lib/python3.8/unittest/suite.py',
   'PYMODULE'),
  ('unittest.case',
   'C:/msys64/mingw64/lib/python3.8/unittest/case.py',
   'PYMODULE'),
  ('unittest.async_case',
   'C:/msys64/mingw64/lib/python3.8/unittest/async_case.py',
   'PYMODULE'),
  ('asyncio',
   'C:/msys64/mingw64/lib/python3.8/asyncio/__init__.py',
   'PYMODULE'),
  ('asyncio.unix_events',
   'C:/msys64/mingw64/lib/python3.8/asyncio/unix_events.py',
   'PYMODULE'),
  ('asyncio.log', 'C:/msys64/mingw64/lib/python3.8/asyncio/log.py', 'PYMODULE'),
  ('asyncio.windows_events',
   'C:/msys64/mingw64/lib/python3.8/asyncio/windows_events.py',
   'PYMODULE'),
  ('asyncio.windows_utils',
   'C:/msys64/mingw64/lib/python3.8/asyncio/windows_utils.py',
   'PYMODULE'),
  ('tempfile', 'C:/msys64/mingw64/lib/python3.8/tempfile.py', 'PYMODULE'),
  ('asyncio.selector_events',
   'C:/msys64/mingw64/lib/python3.8/asyncio/selector_events.py',
   'PYMODULE'),
  ('ssl', 'C:/msys64/mingw64/lib/python3.8/ssl.py', 'PYMODULE'),
  ('base64', 'C:/msys64/mingw64/lib/python3.8/base64.py', 'PYMODULE'),
  ('getopt', 'C:/msys64/mingw64/lib/python3.8/getopt.py', 'PYMODULE'),
  ('asyncio.proactor_events',
   'C:/msys64/mingw64/lib/python3.8/asyncio/proactor_events.py',
   'PYMODULE'),
  ('asyncio.base_subprocess',
   'C:/msys64/mingw64/lib/python3.8/asyncio/base_subprocess.py',
   'PYMODULE'),
  ('asyncio.subprocess',
   'C:/msys64/mingw64/lib/python3.8/asyncio/subprocess.py',
   'PYMODULE'),
  ('asyncio.streams',
   'C:/msys64/mingw64/lib/python3.8/asyncio/streams.py',
   'PYMODULE'),
  ('asyncio.queues',
   'C:/msys64/mingw64/lib/python3.8/asyncio/queues.py',
   'PYMODULE'),
  ('asyncio.runners',
   'C:/msys64/mingw64/lib/python3.8/asyncio/runners.py',
   'PYMODULE'),
  ('asyncio.events',
   'C:/msys64/mingw64/lib/python3.8/asyncio/events.py',
   'PYMODULE'),
  ('contextvars', 'C:/msys64/mingw64/lib/python3.8/contextvars.py', 'PYMODULE'),
  ('asyncio.trsock',
   'C:/msys64/mingw64/lib/python3.8/asyncio/trsock.py',
   'PYMODULE'),
  ('asyncio.staggered',
   'C:/msys64/mingw64/lib/python3.8/asyncio/staggered.py',
   'PYMODULE'),
  ('typing', 'C:/msys64/mingw64/lib/python3.8/typing.py', 'PYMODULE'),
  ('asyncio.tasks',
   'C:/msys64/mingw64/lib/python3.8/asyncio/tasks.py',
   'PYMODULE'),
  ('concurrent.futures',
   'C:/msys64/mingw64/lib/python3.8/concurrent/futures/__init__.py',
   'PYMODULE'),
  ('concurrent.futures.thread',
   'C:/msys64/mingw64/lib/python3.8/concurrent/futures/thread.py',
   'PYMODULE'),
  ('queue', 'C:/msys64/mingw64/lib/python3.8/queue.py', 'PYMODULE'),
  ('concurrent.futures.process',
   'C:/msys64/mingw64/lib/python3.8/concurrent/futures/process.py',
   'PYMODULE'),
  ('multiprocessing.queues',
   'C:/msys64/mingw64/lib/python3.8/multiprocessing/queues.py',
   'PYMODULE'),
  ('multiprocessing.synchronize',
   'C:/msys64/mingw64/lib/python3.8/multiprocessing/synchronize.py',
   'PYMODULE'),
  ('multiprocessing.heap',
   'C:/msys64/mingw64/lib/python3.8/multiprocessing/heap.py',
   'PYMODULE'),
  ('multiprocessing.resource_tracker',
   'C:/msys64/mingw64/lib/python3.8/multiprocessing/resource_tracker.py',
   'PYMODULE'),
  ('multiprocessing.spawn',
   'C:/msys64/mingw64/lib/python3.8/multiprocessing/spawn.py',
   'PYMODULE'),
  ('runpy', 'C:/msys64/mingw64/lib/python3.8/runpy.py', 'PYMODULE'),
  ('pkgutil', 'C:/msys64/mingw64/lib/python3.8/pkgutil.py', 'PYMODULE'),
  ('zipimport', 'C:/msys64/mingw64/lib/python3.8/zipimport.py', 'PYMODULE'),
  ('multiprocessing.process',
   'C:/msys64/mingw64/lib/python3.8/multiprocessing/process.py',
   'PYMODULE'),
  ('multiprocessing.util',
   'C:/msys64/mingw64/lib/python3.8/multiprocessing/util.py',
   'PYMODULE'),
  ('multiprocessing.forkserver',
   'C:/msys64/mingw64/lib/python3.8/multiprocessing/forkserver.py',
   'PYMODULE'),
  ('multiprocessing.context',
   'C:/msys64/mingw64/lib/python3.8/multiprocessing/context.py',
   'PYMODULE'),
  ('multiprocessing.popen_spawn_win32',
   'C:/msys64/mingw64/lib/python3.8/multiprocessing/popen_spawn_win32.py',
   'PYMODULE'),
  ('multiprocessing.popen_forkserver',
   'C:/msys64/mingw64/lib/python3.8/multiprocessing/popen_forkserver.py',
   'PYMODULE'),
  ('multiprocessing.popen_spawn_posix',
   'C:/msys64/mingw64/lib/python3.8/multiprocessing/popen_spawn_posix.py',
   'PYMODULE'),
  ('multiprocessing.popen_fork',
   'C:/msys64/mingw64/lib/python3.8/multiprocessing/popen_fork.py',
   'PYMODULE'),
  ('multiprocessing.sharedctypes',
   'C:/msys64/mingw64/lib/python3.8/multiprocessing/sharedctypes.py',
   'PYMODULE'),
  ('ctypes', 'C:/msys64/mingw64/lib/python3.8/ctypes/__init__.py', 'PYMODULE'),
  ('ctypes._endian',
   'C:/msys64/mingw64/lib/python3.8/ctypes/_endian.py',
   'PYMODULE'),
  ('multiprocessing.pool',
   'C:/msys64/mingw64/lib/python3.8/multiprocessing/pool.py',
   'PYMODULE'),
  ('multiprocessing.dummy',
   'C:/msys64/mingw64/lib/python3.8/multiprocessing/dummy/__init__.py',
   'PYMODULE'),
  ('multiprocessing.dummy.connection',
   'C:/msys64/mingw64/lib/python3.8/multiprocessing/dummy/connection.py',
   'PYMODULE'),
  ('multiprocessing.managers',
   'C:/msys64/mingw64/lib/python3.8/multiprocessing/managers.py',
   'PYMODULE'),
  ('multiprocessing.shared_memory',
   'C:/msys64/mingw64/lib/python3.8/multiprocessing/shared_memory.py',
   'PYMODULE'),
  ('secrets', 'C:/msys64/mingw64/lib/python3.8/secrets.py', 'PYMODULE'),
  ('hmac', 'C:/msys64/mingw64/lib/python3.8/hmac.py', 'PYMODULE'),
  ('multiprocessing.reduction',
   'C:/msys64/mingw64/lib/python3.8/multiprocessing/reduction.py',
   'PYMODULE'),
  ('multiprocessing.resource_sharer',
   'C:/msys64/mingw64/lib/python3.8/multiprocessing/resource_sharer.py',
   'PYMODULE'),
  ('multiprocessing.connection',
   'C:/msys64/mingw64/lib/python3.8/multiprocessing/connection.py',
   'PYMODULE'),
  ('xmlrpc.client',
   'C:/msys64/mingw64/lib/python3.8/xmlrpc/client.py',
   'PYMODULE'),
  ('xmlrpc', 'C:/msys64/mingw64/lib/python3.8/xmlrpc/__init__.py', 'PYMODULE'),
  ('gzip', 'C:/msys64/mingw64/lib/python3.8/gzip.py', 'PYMODULE'),
  ('_compression',
   'C:/msys64/mingw64/lib/python3.8/_compression.py',
   'PYMODULE'),
  ('xml.parsers.expat',
   'C:/msys64/mingw64/lib/python3.8/xml/parsers/expat.py',
   'PYMODULE'),
  ('xml.parsers',
   'C:/msys64/mingw64/lib/python3.8/xml/parsers/__init__.py',
   'PYMODULE'),
  ('xml', 'C:/msys64/mingw64/lib/python3.8/xml/__init__.py', 'PYMODULE'),
  ('xml.sax.expatreader',
   'C:/msys64/mingw64/lib/python3.8/xml/sax/expatreader.py',
   'PYMODULE'),
  ('xml.sax.saxutils',
   'C:/msys64/mingw64/lib/python3.8/xml/sax/saxutils.py',
   'PYMODULE'),
  ('urllib.request',
   'C:/msys64/mingw64/lib/python3.8/urllib/request.py',
   'PYMODULE'),
  ('getpass', 'C:/msys64/mingw64/lib/python3.8/getpass.py', 'PYMODULE'),
  ('nturl2path', 'C:/msys64/mingw64/lib/python3.8/nturl2path.py', 'PYMODULE'),
  ('ftplib', 'C:/msys64/mingw64/lib/python3.8/ftplib.py', 'PYMODULE'),
  ('netrc', 'C:/msys64/mingw64/lib/python3.8/netrc.py', 'PYMODULE'),
  ('shlex', 'C:/msys64/mingw64/lib/python3.8/shlex.py', 'PYMODULE'),
  ('mimetypes', 'C:/msys64/mingw64/lib/python3.8/mimetypes.py', 'PYMODULE'),
  ('http.cookiejar',
   'C:/msys64/mingw64/lib/python3.8/http/cookiejar.py',
   'PYMODULE'),
  ('http', 'C:/msys64/mingw64/lib/python3.8/http/__init__.py', 'PYMODULE'),
  ('urllib.response',
   'C:/msys64/mingw64/lib/python3.8/urllib/response.py',
   'PYMODULE'),
  ('urllib.error',
   'C:/msys64/mingw64/lib/python3.8/urllib/error.py',
   'PYMODULE'),
  ('xml.sax',
   'C:/msys64/mingw64/lib/python3.8/xml/sax/__init__.py',
   'PYMODULE'),
  ('xml.sax.handler',
   'C:/msys64/mingw64/lib/python3.8/xml/sax/handler.py',
   'PYMODULE'),
  ('xml.sax._exceptions',
   'C:/msys64/mingw64/lib/python3.8/xml/sax/_exceptions.py',
   'PYMODULE'),
  ('xml.sax.xmlreader',
   'C:/msys64/mingw64/lib/python3.8/xml/sax/xmlreader.py',
   'PYMODULE'),
  ('http.client', 'C:/msys64/mingw64/lib/python3.8/http/client.py', 'PYMODULE'),
  ('email.message',
   'C:/msys64/mingw64/lib/python3.8/email/message.py',
   'PYMODULE'),
  ('email.policy',
   'C:/msys64/mingw64/lib/python3.8/email/policy.py',
   'PYMODULE'),
  ('email.contentmanager',
   'C:/msys64/mingw64/lib/python3.8/email/contentmanager.py',
   'PYMODULE'),
  ('email.quoprimime',
   'C:/msys64/mingw64/lib/python3.8/email/quoprimime.py',
   'PYMODULE'),
  ('email.headerregistry',
   'C:/msys64/mingw64/lib/python3.8/email/headerregistry.py',
   'PYMODULE'),
  ('email.iterators',
   'C:/msys64/mingw64/lib/python3.8/email/iterators.py',
   'PYMODULE'),
  ('email.generator',
   'C:/msys64/mingw64/lib/python3.8/email/generator.py',
   'PYMODULE'),
  ('email._encoded_words',
   'C:/msys64/mingw64/lib/python3.8/email/_encoded_words.py',
   'PYMODULE'),
  ('quopri', 'C:/msys64/mingw64/lib/python3.8/quopri.py', 'PYMODULE'),
  ('uu', 'C:/msys64/mingw64/lib/python3.8/uu.py', 'PYMODULE'),
  ('optparse', 'C:/msys64/mingw64/lib/python3.8/optparse.py', 'PYMODULE'),
  ('decimal', 'C:/msys64/mingw64/lib/python3.8/decimal.py', 'PYMODULE'),
  ('_pydecimal', 'C:/msys64/mingw64/lib/python3.8/_pydecimal.py', 'PYMODULE'),
  ('numbers', 'C:/msys64/mingw64/lib/python3.8/numbers.py', 'PYMODULE'),
  ('multiprocessing',
   'C:/msys64/mingw64/lib/python3.8/multiprocessing/__init__.py',
   'PYMODULE'),
  ('concurrent.futures._base',
   'C:/msys64/mingw64/lib/python3.8/concurrent/futures/_base.py',
   'PYMODULE'),
  ('concurrent',
   'C:/msys64/mingw64/lib/python3.8/concurrent/__init__.py',
   'PYMODULE'),
  ('asyncio.base_tasks',
   'C:/msys64/mingw64/lib/python3.8/asyncio/base_tasks.py',
   'PYMODULE'),
  ('asyncio.locks',
   'C:/msys64/mingw64/lib/python3.8/asyncio/locks.py',
   'PYMODULE'),
  ('asyncio.sslproto',
   'C:/msys64/mingw64/lib/python3.8/asyncio/sslproto.py',
   'PYMODULE'),
  ('asyncio.transports',
   'C:/msys64/mingw64/lib/python3.8/asyncio/transports.py',
   'PYMODULE'),
  ('asyncio.base_events',
   'C:/msys64/mingw64/lib/python3.8/asyncio/base_events.py',
   'PYMODULE'),
  ('asyncio.protocols',
   'C:/msys64/mingw64/lib/python3.8/asyncio/protocols.py',
   'PYMODULE'),
  ('asyncio.futures',
   'C:/msys64/mingw64/lib/python3.8/asyncio/futures.py',
   'PYMODULE'),
  ('asyncio.coroutines',
   'C:/msys64/mingw64/lib/python3.8/asyncio/coroutines.py',
   'PYMODULE'),
  ('asyncio.base_futures',
   'C:/msys64/mingw64/lib/python3.8/asyncio/base_futures.py',
   'PYMODULE'),
  ('asyncio.exceptions',
   'C:/msys64/mingw64/lib/python3.8/asyncio/exceptions.py',
   'PYMODULE'),
  ('asyncio.format_helpers',
   'C:/msys64/mingw64/lib/python3.8/asyncio/format_helpers.py',
   'PYMODULE'),
  ('asyncio.constants',
   'C:/msys64/mingw64/lib/python3.8/asyncio/constants.py',
   'PYMODULE'),
  ('unittest.result',
   'C:/msys64/mingw64/lib/python3.8/unittest/result.py',
   'PYMODULE'),
  ('unittest.util',
   'C:/msys64/mingw64/lib/python3.8/unittest/util.py',
   'PYMODULE'),
  ('pdb', 'C:/msys64/mingw64/lib/python3.8/pdb.py', 'PYMODULE'),
  ('pydoc', 'C:/msys64/mingw64/lib/python3.8/pydoc.py', 'PYMODULE'),
  ('webbrowser', 'C:/msys64/mingw64/lib/python3.8/webbrowser.py', 'PYMODULE'),
  ('http.server', 'C:/msys64/mingw64/lib/python3.8/http/server.py', 'PYMODULE'),
  ('socketserver',
   'C:/msys64/mingw64/lib/python3.8/socketserver.py',
   'PYMODULE'),
  ('html', 'C:/msys64/mingw64/lib/python3.8/html/__init__.py', 'PYMODULE'),
  ('html.entities',
   'C:/msys64/mingw64/lib/python3.8/html/entities.py',
   'PYMODULE'),
  ('pydoc_data.topics',
   'C:/msys64/mingw64/lib/python3.8/pydoc_data/topics.py',
   'PYMODULE'),
  ('pydoc_data',
   'C:/msys64/mingw64/lib/python3.8/pydoc_data/__init__.py',
   'PYMODULE'),
  ('tty', 'C:/msys64/mingw64/lib/python3.8/tty.py', 'PYMODULE'),
  ('sysconfig', 'C:/msys64/mingw64/lib/python3.8/sysconfig.py', 'PYMODULE'),
  ('_osx_support',
   'C:/msys64/mingw64/lib/python3.8/_osx_support.py',
   'PYMODULE'),
  ('distutils.log',
   'C:/msys64/mingw64/lib/python3.8/distutils/log.py',
   'PYMODULE'),
  ('distutils',
   'C:/msys64/mingw64/lib/python3.8/distutils/__init__.py',
   'PYMODULE'),
  ('distutils.ccompiler',
   'C:/msys64/mingw64/lib/python3.8/distutils/ccompiler.py',
   'PYMODULE'),
  ('distutils.fancy_getopt',
   'C:/msys64/mingw64/lib/python3.8/distutils/fancy_getopt.py',
   'PYMODULE'),
  ('distutils.debug',
   'C:/msys64/mingw64/lib/python3.8/distutils/debug.py',
   'PYMODULE'),
  ('distutils.util',
   'C:/msys64/mingw64/lib/python3.8/distutils/util.py',
   'PYMODULE'),
  ('distutils.filelist',
   'C:/msys64/mingw64/lib/python3.8/distutils/filelist.py',
   'PYMODULE'),
  ('distutils.dep_util',
   'C:/msys64/mingw64/lib/python3.8/distutils/dep_util.py',
   'PYMODULE'),
  ('distutils.dir_util',
   'C:/msys64/mingw64/lib/python3.8/distutils/dir_util.py',
   'PYMODULE'),
  ('distutils.file_util',
   'C:/msys64/mingw64/lib/python3.8/distutils/file_util.py',
   'PYMODULE'),
  ('distutils.spawn',
   'C:/msys64/mingw64/lib/python3.8/distutils/spawn.py',
   'PYMODULE'),
  ('distutils.errors',
   'C:/msys64/mingw64/lib/python3.8/distutils/errors.py',
   'PYMODULE'),
  ('distutils.sysconfig',
   'C:/msys64/mingw64/lib/python3.8/distutils/sysconfig.py',
   'PYMODULE'),
  ('distutils.text_file',
   'C:/msys64/mingw64/lib/python3.8/distutils/text_file.py',
   'PYMODULE'),
  ('platform', 'C:/msys64/mingw64/lib/python3.8/platform.py', 'PYMODULE'),
  ('plistlib', 'C:/msys64/mingw64/lib/python3.8/plistlib.py', 'PYMODULE'),
  ('glob', 'C:/msys64/mingw64/lib/python3.8/glob.py', 'PYMODULE'),
  ('code', 'C:/msys64/mingw64/lib/python3.8/code.py', 'PYMODULE'),
  ('codeop', 'C:/msys64/mingw64/lib/python3.8/codeop.py', 'PYMODULE'),
  ('dis', 'C:/msys64/mingw64/lib/python3.8/dis.py', 'PYMODULE'),
  ('opcode', 'C:/msys64/mingw64/lib/python3.8/opcode.py', 'PYMODULE'),
  ('bdb', 'C:/msys64/mingw64/lib/python3.8/bdb.py', 'PYMODULE'),
  ('cmd', 'C:/msys64/mingw64/lib/python3.8/cmd.py', 'PYMODULE'),
  ('inspect', 'C:/msys64/mingw64/lib/python3.8/inspect.py', 'PYMODULE'),
  ('ast', 'C:/msys64/mingw64/lib/python3.8/ast.py', 'PYMODULE'),
  ('token', 'C:/msys64/mingw64/lib/python3.8/token.py', 'PYMODULE'),
  ('difflib', 'C:/msys64/mingw64/lib/python3.8/difflib.py', 'PYMODULE'),
  ('__future__', 'C:/msys64/mingw64/lib/python3.8/__future__.py', 'PYMODULE'),
  ('_compat_pickle',
   'C:/msys64/mingw64/lib/python3.8/_compat_pickle.py',
   'PYMODULE'),
  ('string', 'C:/msys64/mingw64/lib/python3.8/string.py', 'PYMODULE'),
  ('bisect', 'C:/msys64/mingw64/lib/python3.8/bisect.py', 'PYMODULE'),
  ('email.feedparser',
   'C:/msys64/mingw64/lib/python3.8/email/feedparser.py',
   'PYMODULE'),
  ('email._header_value_parser',
   'C:/msys64/mingw64/lib/python3.8/email/_header_value_parser.py',
   'PYMODULE'),
  ('email.header',
   'C:/msys64/mingw64/lib/python3.8/email/header.py',
   'PYMODULE'),
  ('email.base64mime',
   'C:/msys64/mingw64/lib/python3.8/email/base64mime.py',
   'PYMODULE'),
  ('email.charset',
   'C:/msys64/mingw64/lib/python3.8/email/charset.py',
   'PYMODULE'),
  ('email.encoders',
   'C:/msys64/mingw64/lib/python3.8/email/encoders.py',
   'PYMODULE'),
  ('email.errors',
   'C:/msys64/mingw64/lib/python3.8/email/errors.py',
   'PYMODULE'),
  ('csv', 'C:/msys64/mingw64/lib/python3.8/csv.py', 'PYMODULE'),
  ('tokenize', 'C:/msys64/mingw64/lib/python3.8/tokenize.py', 'PYMODULE'),
  ('importlib.util',
   'C:/msys64/mingw64/lib/python3.8/importlib/util.py',
   'PYMODULE'),
  ('tarfile', 'C:/msys64/mingw64/lib/python3.8/tarfile.py', 'PYMODULE'),
  ('lzma', 'C:/msys64/mingw64/lib/python3.8/lzma.py', 'PYMODULE'),
  ('bz2', 'C:/msys64/mingw64/lib/python3.8/bz2.py', 'PYMODULE'),
  ('fnmatch', 'C:/msys64/mingw64/lib/python3.8/fnmatch.py', 'PYMODULE'),
  ('ntpath', 'C:/msys64/mingw64/lib/python3.8/ntpath.py', 'PYMODULE'),
  ('genericpath', 'C:/msys64/mingw64/lib/python3.8/genericpath.py', 'PYMODULE'),
  ('posixpath', 'C:/msys64/mingw64/lib/python3.8/posixpath.py', 'PYMODULE'),
  ('stat', 'C:/msys64/mingw64/lib/python3.8/stat.py', 'PYMODULE'),
  ('stringprep', 'C:/msys64/mingw64/lib/python3.8/stringprep.py', 'PYMODULE'),
  ('tracemalloc', 'C:/msys64/mingw64/lib/python3.8/tracemalloc.py', 'PYMODULE'),
  ('_py_abc', 'C:/msys64/mingw64/lib/python3.8/_py_abc.py', 'PYMODULE'),
  ('loguru',
   'C:/msys64/mingw64/lib/python3.8/site-packages/loguru/__init__.py',
   'PYMODULE'),
  ('loguru._logger',
   'C:/msys64/mingw64/lib/python3.8/site-packages/loguru/_logger.py',
   'PYMODULE'),
  ('loguru._simple_sinks',
   'C:/msys64/mingw64/lib/python3.8/site-packages/loguru/_simple_sinks.py',
   'PYMODULE'),
  ('loguru._recattrs',
   'C:/msys64/mingw64/lib/python3.8/site-packages/loguru/_recattrs.py',
   'PYMODULE'),
  ('loguru._locks_machinery',
   'C:/msys64/mingw64/lib/python3.8/site-packages/loguru/_locks_machinery.py',
   'PYMODULE'),
  ('loguru._handler',
   'C:/msys64/mingw64/lib/python3.8/site-packages/loguru/_handler.py',
   'PYMODULE'),
  ('json', 'C:/msys64/mingw64/lib/python3.8/json/__init__.py', 'PYMODULE'),
  ('json.encoder',
   'C:/msys64/mingw64/lib/python3.8/json/encoder.py',
   'PYMODULE'),
  ('json.decoder',
   'C:/msys64/mingw64/lib/python3.8/json/decoder.py',
   'PYMODULE'),
  ('json.scanner',
   'C:/msys64/mingw64/lib/python3.8/json/scanner.py',
   'PYMODULE'),
  ('loguru._get_frame',
   'C:/msys64/mingw64/lib/python3.8/site-packages/loguru/_get_frame.py',
   'PYMODULE'),
  ('loguru._file_sink',
   'C:/msys64/mingw64/lib/python3.8/site-packages/loguru/_file_sink.py',
   'PYMODULE'),
  ('loguru._ctime_functions',
   'C:/msys64/mingw64/lib/python3.8/site-packages/loguru/_ctime_functions.py',
   'PYMODULE'),
  ('win32_setctime',
   'C:/msys64/mingw64/lib/python3.8/site-packages/win32_setctime.py',
   'PYMODULE'),
  ('ctypes.wintypes',
   'C:/msys64/mingw64/lib/python3.8/ctypes/wintypes.py',
   'PYMODULE'),
  ('loguru._error_interceptor',
   'C:/msys64/mingw64/lib/python3.8/site-packages/loguru/_error_interceptor.py',
   'PYMODULE'),
  ('loguru._datetime',
   'C:/msys64/mingw64/lib/python3.8/site-packages/loguru/_datetime.py',
   'PYMODULE'),
  ('loguru._colorizer',
   'C:/msys64/mingw64/lib/python3.8/site-packages/loguru/_colorizer.py',
   'PYMODULE'),
  ('loguru._better_exceptions',
   'C:/msys64/mingw64/lib/python3.8/site-packages/loguru/_better_exceptions.py',
   'PYMODULE'),
  ('loguru._string_parsers',
   'C:/msys64/mingw64/lib/python3.8/site-packages/loguru/_string_parsers.py',
   'PYMODULE'),
  ('loguru._filters',
   'C:/msys64/mingw64/lib/python3.8/site-packages/loguru/_filters.py',
   'PYMODULE'),
  ('loguru._colorama',
   'C:/msys64/mingw64/lib/python3.8/site-packages/loguru/_colorama.py',
   'PYMODULE'),
  ('colorama',
   'C:/msys64/mingw64/lib/python3.8/site-packages/colorama/__init__.py',
   'PYMODULE'),
  ('colorama.ansitowin32',
   'C:/msys64/mingw64/lib/python3.8/site-packages/colorama/ansitowin32.py',
   'PYMODULE'),
  ('colorama.winterm',
   'C:/msys64/mingw64/lib/python3.8/site-packages/colorama/winterm.py',
   'PYMODULE'),
  ('colorama.ansi',
   'C:/msys64/mingw64/lib/python3.8/site-packages/colorama/ansi.py',
   'PYMODULE'),
  ('colorama.initialise',
   'C:/msys64/mingw64/lib/python3.8/site-packages/colorama/initialise.py',
   'PYMODULE'),
  ('colorama.win32',
   'C:/msys64/mingw64/lib/python3.8/site-packages/colorama/win32.py',
   'PYMODULE'),
  ('loguru._defaults',
   'C:/msys64/mingw64/lib/python3.8/site-packages/loguru/_defaults.py',
   'PYMODULE'),
  ('datetime', 'C:/msys64/mingw64/lib/python3.8/datetime.py', 'PYMODULE'),
  ('pprint', 'C:/msys64/mingw64/lib/python3.8/pprint.py', 'PYMODULE'),
  ('mysql.connector',
   'C:/msys64/mingw64/lib/python3.8/site-packages/mysql/connector/__init__.py',
   'PYMODULE'),
  ('mysql.connector.pooling',
   'C:/msys64/mingw64/lib/python3.8/site-packages/mysql/connector/pooling.py',
   'PYMODULE'),
  ('uuid', 'C:/msys64/mingw64/lib/python3.8/uuid.py', 'PYMODULE'),
  ('ctypes.util', 'C:/msys64/mingw64/lib/python3.8/ctypes/util.py', 'PYMODULE'),
  ('ctypes._aix', 'C:/msys64/mingw64/lib/python3.8/ctypes/_aix.py', 'PYMODULE'),
  ('ctypes.macholib.dyld',
   'C:/msys64/mingw64/lib/python3.8/ctypes/macholib/dyld.py',
   'PYMODULE'),
  ('ctypes.macholib',
   'C:/msys64/mingw64/lib/python3.8/ctypes/macholib/__init__.py',
   'PYMODULE'),
  ('ctypes.macholib.dylib',
   'C:/msys64/mingw64/lib/python3.8/ctypes/macholib/dylib.py',
   'PYMODULE'),
  ('ctypes.macholib.framework',
   'C:/msys64/mingw64/lib/python3.8/ctypes/macholib/framework.py',
   'PYMODULE'),
  ('mysql',
   'C:/msys64/mingw64/lib/python3.8/site-packages/mysql/__init__.py',
   'PYMODULE'),
  ('mysql.connector.optionfiles',
   'C:/msys64/mingw64/lib/python3.8/site-packages/mysql/connector/optionfiles.py',
   'PYMODULE'),
  ('mysql.connector.catch23',
   'C:/msys64/mingw64/lib/python3.8/site-packages/mysql/connector/catch23.py',
   'PYMODULE'),
  ('mysql.connector.custom_types',
   'C:/msys64/mingw64/lib/python3.8/site-packages/mysql/connector/custom_types.py',
   'PYMODULE'),
  ('mysql.connector.dbapi',
   'C:/msys64/mingw64/lib/python3.8/site-packages/mysql/connector/dbapi.py',
   'PYMODULE'),
  ('mysql.connector.constants',
   'C:/msys64/mingw64/lib/python3.8/site-packages/mysql/connector/constants.py',
   'PYMODULE'),
  ('mysql.connector.charsets',
   'C:/msys64/mingw64/lib/python3.8/site-packages/mysql/connector/charsets.py',
   'PYMODULE'),
  ('mysql.connector.connection',
   'C:/msys64/mingw64/lib/python3.8/site-packages/mysql/connector/connection.py',
   'PYMODULE'),
  ('mysql.connector.abstracts',
   'C:/msys64/mingw64/lib/python3.8/site-packages/mysql/connector/abstracts.py',
   'PYMODULE'),
  ('mysql.connector.protocol',
   'C:/msys64/mingw64/lib/python3.8/site-packages/mysql/connector/protocol.py',
   'PYMODULE'),
  ('mysql.connector.network',
   'C:/msys64/mingw64/lib/python3.8/site-packages/mysql/connector/network.py',
   'PYMODULE'),
  ('mysql.connector.cursor',
   'C:/msys64/mingw64/lib/python3.8/site-packages/mysql/connector/cursor.py',
   'PYMODULE'),
  ('mysql.connector.conversion',
   'C:/msys64/mingw64/lib/python3.8/site-packages/mysql/connector/conversion.py',
   'PYMODULE'),
  ('mysql.connector.authentication',
   'C:/msys64/mingw64/lib/python3.8/site-packages/mysql/connector/authentication.py',
   'PYMODULE'),
  ('mysql.connector.connection_cext',
   'C:/msys64/mingw64/lib/python3.8/site-packages/mysql/connector/connection_cext.py',
   'PYMODULE'),
  ('mysql.connector.cursor_cext',
   'C:/msys64/mingw64/lib/python3.8/site-packages/mysql/connector/cursor_cext.py',
   'PYMODULE'),
  ('mysql.connector.version',
   'C:/msys64/mingw64/lib/python3.8/site-packages/mysql/connector/version.py',
   'PYMODULE'),
  ('mysql.connector.errors',
   'C:/msys64/mingw64/lib/python3.8/site-packages/mysql/connector/errors.py',
   'PYMODULE'),
  ('mysql.connector.locales',
   'C:/msys64/mingw64/lib/python3.8/site-packages/mysql/connector/locales/__init__.py',
   'PYMODULE'),
  ('mysql.connector.errorcode',
   'C:/msys64/mingw64/lib/python3.8/site-packages/mysql/connector/errorcode.py',
   'PYMODULE'),
  ('mysql.connector.utils',
   'C:/msys64/mingw64/lib/python3.8/site-packages/mysql/connector/utils.py',
   'PYMODULE'),
  ('gi.overrides.GLib',
   'C:/msys64/mingw64/lib/python3.8/site-packages/gi/overrides/GLib.py',
   'PYMODULE'),
  ('gi._error',
   'C:/msys64/mingw64/lib/python3.8/site-packages/gi/_error.py',
   'PYMODULE'),
  ('gi._option',
   'C:/msys64/mingw64/lib/python3.8/site-packages/gi/_option.py',
   'PYMODULE'),
  ('gi.module',
   'C:/msys64/mingw64/lib/python3.8/site-packages/gi/module.py',
   'PYMODULE'),
  ('gi._constants',
   'C:/msys64/mingw64/lib/python3.8/site-packages/gi/_constants.py',
   'PYMODULE'),
  ('gi.types',
   'C:/msys64/mingw64/lib/python3.8/site-packages/gi/types.py',
   'PYMODULE'),
  ('gi._signalhelper',
   'C:/msys64/mingw64/lib/python3.8/site-packages/gi/_signalhelper.py',
   'PYMODULE'),
  ('gi._propertyhelper',
   'C:/msys64/mingw64/lib/python3.8/site-packages/gi/_propertyhelper.py',
   'PYMODULE'),
  ('gi.docstring',
   'C:/msys64/mingw64/lib/python3.8/site-packages/gi/docstring.py',
   'PYMODULE'),
  ('gi._ossighelper',
   'C:/msys64/mingw64/lib/python3.8/site-packages/gi/_ossighelper.py',
   'PYMODULE'),
  ('gi.overrides.GObject',
   'C:/msys64/mingw64/lib/python3.8/site-packages/gi/overrides/GObject.py',
   'PYMODULE'),
  ('gi.overrides.GdkPixbuf',
   'C:/msys64/mingw64/lib/python3.8/site-packages/gi/overrides/GdkPixbuf.py',
   'PYMODULE'),
  ('gi.overrides.Gio',
   'C:/msys64/mingw64/lib/python3.8/site-packages/gi/overrides/Gio.py',
   'PYMODULE'),
  ('gi.overrides.Pango',
   'C:/msys64/mingw64/lib/python3.8/site-packages/gi/overrides/Pango.py',
   'PYMODULE'),
  ('gi.overrides.Gdk',
   'C:/msys64/mingw64/lib/python3.8/site-packages/gi/overrides/Gdk.py',
   'PYMODULE'),
  ('gi.overrides',
   'C:/msys64/mingw64/lib/python3.8/site-packages/gi/overrides/__init__.py',
   'PYMODULE'),
  ('gi.importer',
   'C:/msys64/mingw64/lib/python3.8/site-packages/gi/importer.py',
   'PYMODULE'),
  ('gi.overrides.Gtk',
   'C:/msys64/mingw64/lib/python3.8/site-packages/gi/overrides/Gtk.py',
   'PYMODULE'),
  ('gi._gtktemplate',
   'C:/msys64/mingw64/lib/python3.8/site-packages/gi/_gtktemplate.py',
   'PYMODULE'),
  ('gi.repository',
   'C:/msys64/mingw64/lib/python3.8/site-packages/gi/repository/__init__.py',
   'PYMODULE'),
  ('gi',
   'C:/msys64/mingw64/lib/python3.8/site-packages/gi/__init__.py',
   'PYMODULE')])
